{
    "KPlugin": {
        "BugReportUrl": "https://bugs.kde.org/enter_bug.cgi?product=systemsettings&component=kcm_users",
        "Description": "Manage user accounts",
        "Description[ar]": "أدِر حسابات المستخدمين",
        "Description[az]": "İstifadəçi hesablarını idarə edin",
        "Description[be]": "Кіраванне акаўнтамі карыстальніка",
        "Description[bg]": "Управление на потребителски профили",
        "Description[ca@valencia]": "Gestiona els comptes dels usuaris",
        "Description[ca]": "Gestiona els comptes dels usuaris",
        "Description[cs]": "Správa uživatelských účtů",
        "Description[da]": "Håndtér brugerkonti",
        "Description[de]": "Benutzerkonten verwalten",
        "Description[el]": "Διαχείριση λογαριασμών χρηστών",
        "Description[en_GB]": "Manage user accounts",
        "Description[eo]": "Administri uzantkontojn",
        "Description[es]": "Gestión de las cuentas de usuario",
        "Description[et]": "Kasutajakontode haldamine",
        "Description[eu]": "Kudeatu erabiltzaile-kontuak",
        "Description[fi]": "Hallitse käyttäjätilejä",
        "Description[fr]": "Gérer les comptes d'utilisateurs",
        "Description[gl]": "Xestionar as contas de persoas usuarias.",
        "Description[he]": "ניהול חשבונות משתמשים",
        "Description[hi]": "उपयोगकर्ता खाते प्रबंधित करें",
        "Description[hu]": "Felhasználói fiókok kezelése",
        "Description[ia]": "Gere contos de usator",
        "Description[id]": "Kelola akun pengguna",
        "Description[is]": "Hafa umsjón með notandareikningum",
        "Description[it]": "Gestisci gli account degli utenti",
        "Description[ja]": "ユーザアカウントを管理",
        "Description[ka]": "მომხმარებლის ანაგარიშების მართვა",
        "Description[ko]": "사용자 계정 관리",
        "Description[lt]": "Tvarkyti naudotojų paskyras",
        "Description[lv]": "Pārvaldiet lietotāju kontus",
        "Description[nl]": "Gebruikersaccounts beheren",
        "Description[nn]": "Handsam brukarkontoar",
        "Description[pa]": "ਵਰਤੋਂਕਾਰ ਖਾਤਿਆਂ ਦਾ ਇੰਤਜ਼ਾਮ ਕਰੋ",
        "Description[pl]": "Zarządzanie kontami użytkowników",
        "Description[pt]": "Gerir as contas dos utilizadores",
        "Description[pt_BR]": "Gerenciar contas de usuários",
        "Description[ro]": "Gestionează conturile de utilizator",
        "Description[ru]": "Управление учётными записями пользователей",
        "Description[sa]": "उपयोक्तृलेखानां प्रबन्धनं कुर्वन्तु",
        "Description[sk]": "Spravujte používateľské účty",
        "Description[sl]": "Upravljaj uporabniške račune",
        "Description[sv]": "Hantera användarkonton",
        "Description[ta]": "பயனர் கணக்குகளை நிர்வகியுங்கள்",
        "Description[tr]": "Kullanıcı hesaplarını yönetin",
        "Description[uk]": "Керування обліковими записами",
        "Description[vi]": "Quản lí các danh khoản người dùng",
        "Description[x-test]": "xxManage user accountsxx",
        "Description[zh_CN]": "管理用户账户",
        "Description[zh_TW]": "管理使用者帳號",
        "FormFactors": [
            "tablet",
            "handset",
            "desktop"
        ],
        "Icon": "preferences-system-users",
        "Name": "Users",
        "Name[ar]": "المستخدمين",
        "Name[az]": "İstifadəçilər",
        "Name[be]": "Карыстальнікі",
        "Name[bg]": "Потребители",
        "Name[ca@valencia]": "Usuaris",
        "Name[ca]": "Usuaris",
        "Name[cs]": "Uživatelé",
        "Name[da]": "Brugere",
        "Name[de]": "Benutzer",
        "Name[el]": "Χρήστες",
        "Name[en_GB]": "Users",
        "Name[eo]": "Uzantoj",
        "Name[es]": "Usuarios",
        "Name[et]": "Kasutajad",
        "Name[eu]": "Erabiltzaileak",
        "Name[fi]": "Käyttäjät",
        "Name[fr]": "Utilisateurs",
        "Name[gl]": "Persoas usuarias",
        "Name[he]": "משתמשים",
        "Name[hi]": "उपयोक्ता",
        "Name[hu]": "Felhasználók",
        "Name[ia]": "Usatores",
        "Name[id]": "Pengguna",
        "Name[is]": "Notendur",
        "Name[it]": "Utenti",
        "Name[ja]": "ユーザ",
        "Name[ka]": "მომხმარებლები",
        "Name[ko]": "사용자",
        "Name[lt]": "Naudotojai",
        "Name[lv]": "Lietotāji",
        "Name[nl]": "Gebruikers",
        "Name[nn]": "Brukarar",
        "Name[pa]": "ਵਰਤੋਂਕਾਰ",
        "Name[pl]": "Użytkownicy",
        "Name[pt]": "Utilizadores",
        "Name[pt_BR]": "Usuários",
        "Name[ro]": "Utilizatori",
        "Name[ru]": "Пользователи",
        "Name[sa]": "उपयोक्तारः",
        "Name[sk]": "Používatelia",
        "Name[sl]": "Uporabniki",
        "Name[sv]": "Användare",
        "Name[ta]": "பயனர்கள்",
        "Name[tok]": "sijelo",
        "Name[tr]": "Kullanıcılar",
        "Name[uk]": "Користувачі",
        "Name[vi]": "Người dùng",
        "Name[x-test]": "xxUsersxx",
        "Name[zh_CN]": "用户",
        "Name[zh_TW]": "使用者"
    },
    "X-KDE-Keywords": "users,accounts,profile picture,profile photo,avatar,name,password,passwords,email,e-mail,administrator,root user,standard user,profile,delete user,delete account,pfp,fingerprint,biometric",
    "X-KDE-Keywords[ar]": "المستخدمون,الحسابات,صورة الملف الشخصي,صورة الملف الشخصي,الصورة الرمزية,الاسم,كلمة المرور,كلمات المرور,البريد الإلكتروني,البريد الإلكتروني,المسؤول,المستخدم الجذر,المستخدم القياسي,الملف الشخصي,حذف المستخدم,حذف الحساب,PFP,بصمة الإصبع,البيانات الحيوية",
    "X-KDE-Keywords[az]": "users,accounts,profile picture,profile photo,avatar,name,password,passwords,email,e-mail,administrator,root user,standard user,profile, delete user,delete account,pfp,fingerprint,biometric,istifadəçilər,profil şəkli,profil fotoşəkili,ad,şifrə,şifrələr,epoçt,e-poçt,inzibatçı,kök istifadəsi,ilkin istifadəçi,profil,istifadəçini silmək,hesabı silmək, barmaq izi, biometriya",
    "X-KDE-Keywords[be]": "карыстальнікі,акаўнты,фота профілю,фота профілю,аватар,імя,пароль,паролі,электронная пошта,электронная пошта,адміністратар,суперкарыстальнік,стандартны карыстальнік,профіль,выдаліць карыстальніка,выдаліць акаўнт, pfp, адбітак пальца,біяметрыя",
    "X-KDE-Keywords[bg]": "потребители, акаунти, профилна снимка, профилна снимка, аватар, име, парола, пароли, имейл, имейл, администратор, root потребител, стандартен потребител, профил, изтриване на потребител, изтриване на акаунт, pfp, пръстов отпечатък, биометричен",
    "X-KDE-Keywords[ca@valencia]": "usuaris,comptes,imatge de perfil,foto de perfil,avatar,nom,contrasenya,contrasenyes,correu-e,correu electrònic,correu,administrador,usuari administrador,usuari estàndard,perfil,suprimir usuari,suprimir compte,pfp,empremta dactilar,biomètric,biometria",
    "X-KDE-Keywords[ca]": "usuaris,comptes,imatge de perfil,foto de perfil,avatar,nom,contrasenya,contrasenyes,correu-e,correu electrònic,correu,administrador,usuari administrador,usuari estàndard,perfil,suprimir usuari,suprimir compte,pfp,empremta dactilar,biomètric,biometria",
    "X-KDE-Keywords[el]": "χρήστες,λογαριασμοί,εικόνα προφίλ,φωτογραφία προφίλ, άβαταρ,όνομα,κωδικός πρόσβασης,κωδικοί πρόσβασης,e-mail,e-mail,διαχειριστής,ριζικός χρήστης,τυπικός χρήστης,προφίλ,διαγραφή χρήστη,διαγραφή λογαριασμού,pfp,δακτυλικό αποτύπωμα,βιομετρικό",
    "X-KDE-Keywords[en_GB]": "users,accounts,profile picture,profile photo,avatar,name,password,passwords,email,e-mail,administrator,root user,standard user,profile,delete user,delete account,pfp,fingerprint,biometric",
    "X-KDE-Keywords[es]": "usuarios,cuentas,imagen de perfil,foto de perfil,avatar,nombre,contraseña,contraseñas,email,e-mail,correo,correo electrónico,administrador,usuario root,usuario normal,perfil,borrar usuario,borrar cuenta,pfp,huella digital,biométrico,biometría",
    "X-KDE-Keywords[eu]": "erabiltzaileak,kontuak,profileko irudia,profileko argazkia,abatara,izena,pasahitza,pasahitzak,eposta,e-posta,administratzailea,erro erabiltzailea,root erabiltzailea,erabiltzaile arrunta,profila,ezabatu erabiltzailea,ezabatu kontua,pfp,hatz-marka,biometria",
    "X-KDE-Keywords[fr]": "utilisateurs, comptes, image du profil, photo du profil, avatar, nom, mot de passe, mots de passe, courriel, administrateur, compte administrateur, utilisateur standard, profil, supprimer un utilisateur, supprimer un compte, pfp, empreinte numérique, biométrie",
    "X-KDE-Keywords[gl]": "users,usuarias,usuarios,accounts,contas,profile picture,foto de perfil,imaxe de perfil,profile photo,avatar,name,nome,password,contrasinal,passwords,email,correo electrónico,e-mail,administrator,administradora,administrador,administración,root user,usuaria root,usuario root,standard user,usuaria estándar,usuario estándar,profile,perfil,delete user,eliminar a usuaria,eliminar o usuario,delete account,eliminar a conta,pfp,fingerprint,pegada,biometric,biométrica,biométrico",
    "X-KDE-Keywords[he]": "משתמשים,חשבונות,תמונת פרופיל,תמונה ייצוגית,שם, סיסמה,סיסמאות,דוא״ל,דוא\"ל,דואר אלקטרוני,מייל,אימייל,ניהול,הנהלה,משתמש על,רוט,משתמש רגיל,פרופיל,מחיקת משתמש,מחיקת משתמשים,מחיקת חשבון,טביעת אצבע,ביומטרי",
    "X-KDE-Keywords[hu]": "felhasználók,fiókok,profilkép,profilfotó,avatár,név,jelszó,jelszavak,email,e-mail,adminisztrátor,root felhasználó,standard felhasználó,profil,felhasználó törlése,fiók törlése,pfp,ujjlenyomat,biometrikus",
    "X-KDE-Keywords[ia]": "users,accounts,profile picture,profile photo,avatar,name,password,passwords,email,e-mail,administrator,root user,standard user,profile,delete user,delete account,pfp,fingerprint,biometric",
    "X-KDE-Keywords[it]": "utenti,account,immagine del profilo,foto del profilo,avatar,nome,password,email,e-mail,amministratore,utente root,utente standard,profilo,elimina utente,elimina account,pfp,impronta digitale,biometria",
    "X-KDE-Keywords[ka]": "users,accounts,profile picture,profile photo,avatar,name,password,passwords,email,e-mail,administrator,root user,standard user,profile,delete user,delete account,pfp,fingerprint,biometric",
    "X-KDE-Keywords[ko]": "users,accounts,profile picture,profile photo,avatar,name,password,passwords,email,e-mail,administrator,root user,standard user,profile,delete user,delete account,pfp,fingerprint,biometric,사용자,계정,프로필 사진,아바타,이름,암호,비밀번호,이메일,관리자,루트,루트 사용자,일반 사용자,프로필,사용자 삭제,계정 삭제,지문,생체",
    "X-KDE-Keywords[lt]": "naudotojai,vartotojai,paskyros,profilio paveikslas,profilio atvaizdas,profilio paveiksliukas,profilio paveikslėlis,profilio paveikslelis,profilio nuotrauka,avataras,vardas,slaptažodis,slaptazodis,slaptažodžiai,slaptazodziai,el. paštas,el. pastas,administratorius,administratoriaus,root,pagrindinis naudotojas,standartinis naudotojas,standartinė,standartine,profilis,ištrinti naudotoją,istrinti naudotoja,trinti naudotoją,ištrinti paskyrą,istrinti paskyra,trinti paskyrą,piršto atspaudas,pirsto atspaudas,pirštų atspaudas,pirstu atspaudas,biometrija,biometrijos",
    "X-KDE-Keywords[lv]": "lietotāji,konti,profila attēls,profila foto,avatars,vārds,parole,paroles,e-pasts,epasts,administrators,saknes lietotājs,standarta lietotājs,profils,dzēst lietotāju,dzēst kontu,pfp,pirkstu nospiedums,biometrija",
    "X-KDE-Keywords[nl]": "gebruikers,accounts,profielplaatje,profielfoto,avatar,naam,wachtwoord,wachtwoorden,e-mail,beheerder,root-gebruiker,standaard gebruiker,profiel,gebruiker verwijderen,account verwijderen,pfp,vingerafdruk,biometrisch",
    "X-KDE-Keywords[nn]": "brukarar,kontoar,profilbilete,profilfoto,avatar,brukarbilete,namn,passord,e-post,epost,administrator,rotbrukar,standardbrukar,profil,sletta brukar,sletta konto,pfp,fingeravtrykk,biometrisk",
    "X-KDE-Keywords[pl]": "użytkownicy,konta,zdjęcie profilowe,zdjęcie profilowe,awatar,nazwa,hasło,hasła,email,e-mail,administrator,użytkownik root,standardowy użytkownik,profil,usuń użytkownika,usuń konto,pfp,odcisk palca,biometria",
    "X-KDE-Keywords[pt_BR]": "usuários,contas,imagem do perfil,foto do perfil,avatar,ícone do usuário,nome,senha,senhas,email,e-mail,administrador,usuário root,usuário padrão,perfil,excluir usuário,excluir conta,pfp,impressão digital,biometria",
    "X-KDE-Keywords[ru]": "users,accounts,profile picture,profile photo,avatar,name,password,passwords,email,e-mail,administrator,root user,standard user,profile,delete user,delete account,pfp,fingerprint,biometric,пользователи,учётные записи,фотография профиля,изображение профиля,аватар,имя,пароль,пароли,администратор,суперпользователь,пользователь,удалить пользователя,отпечаток,биометрия",
    "X-KDE-Keywords[sk]": "používatelia,užívatelia,účty,profilový obrázok,profilová fotografia,avatar,podobizeň,názov,meno,heslo,heslá,email,e-mail,administrátor,správca,štandardný používateľ,profil,odstrániť používateľa,odstránenie používateľa,odstrániť účet,odstránenie účtu,pfp,odtlačok,odtlačok prsta,biometria,biometrický",
    "X-KDE-Keywords[sl]": "uporabniki,računi,slika profila,fotografija profila,avatar,ime,geslo,gesla,email,e-pošta,skrbnik,uporabnik root,profil,briši uporabnika,briši račun,pfp,prstni odtis,biometrika",
    "X-KDE-Keywords[sv]": "användare,konton,profilbild,profilfoto,avatar,namn,lösenord,e-post,administratör,root-användare,standardanvändare,profil,ta bort användare,ta bort konto,pfp,fingeravtryck,biometri",
    "X-KDE-Keywords[ta]": "users,accounts,profile picture,profile photo,avatar,name,password,passwords,email,e-mail,administrator,root user,standard user,profile,delete user,delete account,pfp,fingerprint,biometric, பயனர்கள், கணக்குகள், படம், பெயர், கடவுச்சொல், கடவுச்சொற்கள், அஞ்சல், மின்னஞ்சல், முகவரி, நிர்வாகி, ரூட், ரூட்டு, சாதாரண பயனர், கைரேகை",
    "X-KDE-Keywords[tr]": "kullanıcı,kullanıcılar,hesaplar,profil resmi,profil fotoğrafı,profil görseli,avatar,ad,parola,parolalar,şifre,şifreler,e-mail,email,e-posta,yönetici,kök,süper,yönetici,kök kullanıcı,standart kullanıcı,profil,kullanıcıyı sil,hesabı sil,pfp,parmak izi,biyometrik",
    "X-KDE-Keywords[uk]": "users,accounts,profile picture,profile photo,avatar,name,password,passwords,email,e-mail,administrator,root user,standard user,profile,delete user,delete account,pfp,fingerprint,biometric,користувачі,облікові записи,записи,зображення профілю,фото профілю,аватар,ім'я,назва,пароль,паролі,електронна пошта,адміністратор,користувач рут,стандартний користувач,профіль,вилучити користувача,вилучити обліковий запис,пфп,пеефпеЄ,відбиток,біометрія,біометричний",
    "X-KDE-Keywords[vi]": "users,accounts,profile picture,profile photo,avatar,name,password,passwords,email,e-mail,administrator,root user,standard user,profile,delete user,delete account,pfp,fingerprint,biometric,người dùng,danh khoản,ảnh hồ sơ,hiện thân ảo,tên,mật khẩu,thư,thư điện tử,quản trị viên,người dùng gốc,người dùng thường,hồ sơ,xoá người dùng,xoá danh khoản,dấu vân tay,sinh trắc",
    "X-KDE-Keywords[x-test]": "xxusersxx,xxaccountsxx,xxprofile picturexx,xxprofile photoxx,xxavatarxx,xxnamexx,xxpasswordxx,xxpasswordsxx,xxemailxx,xxe-mailxx,xxadministratorxx,xxroot userxx,xxstandard userxx,xxprofilexx,xxdelete userxx,xxdelete accountxx,xxpfpxx,xxfingerprintxx,xxbiometricxx",
    "X-KDE-Keywords[zh_CN]": "users,accounts,profile picture,profile photo,avatar,name,password,passwords,email,e-mail,administrator,root user,standard user,profile,delete user,delete account,pfp,fingerprint,biometric,yonghu,zhanghu,zhanghao,touxiang,gerenziliaotupian,zhanghutupian,zhanghuzhaopian,mingcheng,mingzi,xingming,yonghuming,mima,kouling,dianziyoujian,dianyou,guanliyuan,genyonghu,biaozhunyonghu,shanchuyonghu,shanchuzhanghu,shanchuzhanghao,zhiwen,shengwushibie,用户,账户,账号,头像,个人资料图片,账户图片,账户照片,名称,名字,姓名,用户名,密码,口令,电子邮件,电邮,管理员,根用户,标准用户,删除用户,删除账户,删除账号,指纹,生物识别",
    "X-KDE-Keywords[zh_TW]": "使用者,帳號,帳戶,大頭貼,頭貼,頭像,名稱,姓名,密碼,電子郵件,電郵,管理員,root 使用者,刪除使用者,刪除帳號,指紋",
    "X-KDE-System-Settings-Parent-Category": "system-administration",
    "X-KDE-Weight": 40
}
