{
    "KPlugin": {
        "Description": "Informs when applications get terminated to prevent out of memory conditions",
        "Description[bg]": "Информира, когато приложенията бъдат прекратени, за да се предотвратят условия на липса на памет",
        "Description[ca@valencia]": "Informa quan es termina una aplicació per a evitar condicions d'exhauriment de memòria",
        "Description[ca]": "Informa quan es termina una aplicació per a evitar condicions d'exhauriment de memòria",
        "Description[en_GB]": "Informs when applications get terminated to prevent out of memory conditions",
        "Description[es]": "Informa cuando se cierran aplicaciones para evitar situaciones de falta de memoria",
        "Description[fr]": "Informe lorsque les applications se terminent pour éviter des conditions de mémoire insuffisante.",
        "Description[he]": "מודיע כאשר יישומים מושמדים כדי למנוע מצבים בהם ינצלו את כל הזיכרון",
        "Description[ia]": "informa quando applicationes es terminate per prevenir conditiones de fin de memoria (forsa de memoria)",
        "Description[ka]": "გაგაფრთხილებთ, როცა აპლიკაციები ძალით დასრულდება მეხსიერების რაოდენობასთან დაკავშირებული პრობლემების გამო",
        "Description[lt]": "Informuoja, kai baigiamas programų darbas siekiant neleisti atminties trūkumo sąlygų",
        "Description[lv]": "Informē, kas programma tiek nobeigta, lai izvairītos no pilnīgas atmiņas izmelšanas",
        "Description[nl]": "Informeert wanneer toepassingen beëindigd worden om condities van geen geheugen meer te voorkomen",
        "Description[sl]": "Obvesti, ko se aplikacije prekinejo, da se preprečijo pogoji pomanjkanja pomnilnika",
        "Description[tr]": "Uygulamalar var olan belleğin tükenmesinden ötürü sonlandırıldığında bildirir",
        "Description[uk]": "Інформує про переривання роботи програм для запобігання нестачі пам'яті",
        "Description[x-test]": "xxInforms when applications get terminated to prevent out of memory conditionsxx",
        "Description[zh_CN]": "当应用程序被终止以防止内存不足时通知用户",
        "Name": "Out of Memory Notifier",
        "Name[bg]": "Известие за недостиг на памет",
        "Name[ca@valencia]": "Notificador de memòria exhaurida",
        "Name[ca]": "Notificador de memòria exhaurida",
        "Name[en_GB]": "Out of Memory Notifier",
        "Name[es]": "Notificador de falta de memoria",
        "Name[fr]": "Notificateur de mémoire insuffisante",
        "Name[he]": "מודיע על ניצול הזיכרון במלואו",
        "Name[ia]": "Notificator de Foras de Memoria",
        "Name[ka]": "მეხსიერების გადავსების გაფრთხილება",
        "Name[lt]": "Atminties trūkumo pranešiklis",
        "Name[lv]": "Ziņotājs, ka trūkst atmiņas",
        "Name[nl]": "Kennisgever van geen geheugen meer",
        "Name[sl]": "Obvestilo o pomanjkanju pomnilnika",
        "Name[tr]": "Bellek Tükendi Bildiricisi",
        "Name[uk]": "Сповіщувач про нестачу пам'яті",
        "Name[x-test]": "xxOut of Memory Notifierxx",
        "Name[zh_CN]": "内存不足通知程序"
    },
    "X-KDE-Kded-autoload": true
}
